<svg width="91" height="105" viewBox="0 0 91 105" fill="none" xmlns="http://www.w3.org/2000/svg">
<path d="M89.4428 0.394533C89.0314 0.0695134 88.5118 -0.0604943 88.0138 0.0261775L45.0354 8.62835L2.07856 0.0478455C1.14754 -0.147166 0.216516 0.459536 0.0433032 1.39126C0.0216516 1.4996 0 1.62961 0 1.73795V74.5423C0 75.3656 0.584594 76.0807 1.3857 76.2324L32.9105 82.5594V93.7834C32.9105 96.7086 33.127 99.6338 33.5817 102.537C33.7332 103.512 34.6426 104.162 35.6169 103.989H35.6386C36.5479 103.816 37.1542 102.949 37.0026 102.039C36.5696 99.3087 36.3531 96.5352 36.3531 93.7834V83.5128L44.6456 84.8995C45.2086 84.9862 45.7715 84.8129 46.1612 84.4012L55.6013 74.8673C56.3375 74.1306 57.5283 74.1089 58.2862 74.8456C58.2862 74.8456 58.2861 74.8456 58.3078 74.8673C59.0656 75.6257 59.0656 76.8607 58.3078 77.6191L56.9221 79.0275L56.8138 79.0492L56.8355 79.1359L50.5782 85.4412C49.907 86.1129 49.907 87.218 50.5782 87.8897C50.7081 88.0197 50.8596 88.1281 51.0329 88.2147C54.692 90.0565 56.9654 93.8051 56.9438 97.8786C56.9438 99.3521 56.7272 100.414 56.2725 101.411C56.2292 101.476 56.1859 101.584 56.1426 101.692C55.7313 102.537 56.0777 103.556 56.9221 103.989C57.7882 104.422 58.8491 104.054 59.2605 103.187C59.3254 103.036 59.3904 102.906 59.4337 102.797C59.9966 101.541 60.3864 99.8938 60.3864 97.8786C60.408 93.3067 58.2428 89.0164 54.5404 86.3296L58.5893 82.2344L59.1739 82.126L88.6201 76.2324C89.4212 76.0807 90.0058 75.3656 90.0058 74.5423V1.73795C90.0707 1.21791 89.8326 0.719552 89.4428 0.394533ZM3.46426 3.8614L43.3032 11.8352V81.1077L3.46426 73.1122V3.8614ZM58.8924 71.2271C58.2862 70.9887 57.6366 70.8587 56.9871 70.8587C55.5581 70.8587 54.1723 71.4221 53.1764 72.4405L46.7675 78.9192V11.8352L86.6065 3.8614V73.1338L62.0319 78.0525C62.2701 77.3808 62.3567 76.6657 62.3134 75.9507C62.0968 73.5889 60.9277 72.0288 58.8924 71.2271Z" fill="#335433"/>
<path d="M82.7958 8.02116L51.6175 14.2615C50.6865 14.4565 50.0586 15.3666 50.2534 16.2983C50.405 17.1217 51.1411 17.7067 51.9639 17.6851C52.0722 17.6851 52.2021 17.6851 52.3103 17.6417L83.4887 11.4014C84.4197 11.2064 85.0259 10.2963 84.8311 9.36458C84.6362 8.43286 83.7268 7.82615 82.7958 8.02116Z" fill="#335433"/>
<path d="M82.7958 14.9549L51.6175 21.1953C50.6865 21.3903 50.0586 22.3003 50.2534 23.2321C50.405 24.0554 51.1411 24.6405 51.9639 24.6188C52.0722 24.6188 52.2021 24.6188 52.3103 24.5755L83.4887 18.3351C84.4197 18.1401 85.0259 17.2084 84.8094 16.2766C84.6146 15.3666 83.7268 14.7816 82.7958 14.9549Z" fill="#335433"/>
<path d="M82.7958 21.8886L51.6175 28.129C50.6865 28.324 50.0586 29.234 50.2534 30.1658C50.405 30.9892 51.1411 31.5742 51.9639 31.5525C52.0722 31.5525 52.2021 31.5525 52.3103 31.5092L83.4887 25.2688C84.4197 25.0738 85.0259 24.1421 84.8094 23.2104C84.6146 22.3003 83.7268 21.7153 82.7958 21.8886Z" fill="#335433"/>
<path d="M28.0605 71.1182L7.27496 66.958C6.34394 66.763 5.41292 67.3697 5.2397 68.3014C5.04484 69.2331 5.65108 70.1649 6.5821 70.3382L27.3677 74.4984C27.4759 74.5201 27.6058 74.5418 27.7141 74.5418C28.6668 74.5418 29.4462 73.7617 29.4462 72.8083C29.4462 71.985 28.8616 71.2699 28.0605 71.1182Z" fill="#335433"/>
<path d="M40.1854 66.6113L7.27496 60.0243C6.34394 59.8293 5.41292 60.436 5.2397 61.3677C5.04484 62.2994 5.65108 63.2311 6.5821 63.4045L39.4926 69.9915C39.6008 70.0132 39.7307 70.0349 39.839 70.0349C40.7917 70.0349 41.5711 69.2548 41.5711 68.3014C41.5711 67.4781 40.9865 66.763 40.1854 66.6113Z" fill="#335433"/>
<path d="M28.0605 57.8574L7.27496 53.6971C6.34394 53.5021 5.41292 54.1088 5.2397 55.0405C5.04484 55.9723 5.65108 56.904 6.5821 57.0773L27.3677 61.2376C27.4759 61.2593 27.6058 61.2809 27.7141 61.2809C28.6668 61.2809 29.4462 60.5009 29.4462 59.5475C29.4462 58.7241 28.8616 58.0091 28.0605 57.8574Z" fill="#335433"/>
<path d="M40.1854 53.3505L7.27496 46.7634C6.34394 46.5684 5.41292 47.1751 5.2397 48.1068C5.04484 49.0385 5.65108 49.9703 6.5821 50.1436L39.4926 56.7307C39.6008 56.7523 39.7307 56.774 39.839 56.774C40.7917 56.774 41.5711 55.994 41.5711 55.0406C41.5711 54.2172 40.9865 53.5021 40.1854 53.3505Z" fill="#335433"/>
<path d="M40.1854 46.7852L7.27496 40.1981C6.34394 40.0031 5.41292 40.6098 5.2397 41.5415C5.04484 42.4732 5.65108 43.405 6.5821 43.5783L39.4926 50.1654C39.6008 50.187 39.7307 50.2087 39.839 50.2087C40.7917 50.2087 41.5711 49.4286 41.5711 48.4753C41.5711 47.6519 40.9865 46.9585 40.1854 46.7852Z" fill="#335433"/>
<path d="M40.2071 14.9982L9.02873 8.06448C8.09772 7.8478 7.1667 8.45451 6.97183 9.38623C6.95018 9.49457 6.92853 9.62458 6.92853 9.75458V32.2893C6.92853 33.1126 7.49147 33.806 8.29258 33.9794L39.4709 40.9131C39.6008 40.9348 39.7307 40.9564 39.839 40.9564C40.7917 40.9564 41.5711 40.1764 41.5711 39.223V16.6883C41.5711 15.8649 41.0082 15.1716 40.2071 14.9982ZM38.1069 37.0562L10.3928 30.9025V11.9214L38.1069 18.0751V37.0562Z" fill="#335433"/>
<path d="M54.8219 39.223C55.7096 39.223 56.4241 39.938 56.4241 40.8264C56.4241 41.7148 55.7096 42.4298 54.8219 42.4298C53.9342 42.4298 53.2197 41.7148 53.2197 40.8264C53.2197 39.938 53.9342 39.223 54.8219 39.223ZM54.8219 36.1895C52.267 36.1895 50.1885 38.2696 50.1885 40.8264C50.1885 43.3832 52.267 45.4633 54.8219 45.4633C57.3768 45.4633 59.4554 43.3832 59.4554 40.8264C59.477 38.2696 57.3985 36.1895 54.8219 36.1895Z" fill="#335433"/>
<path d="M66.8169 36.7095C67.7046 36.7095 68.4191 37.4246 68.4191 38.313C68.4191 39.2014 67.7046 39.9164 66.8169 39.9164C65.9292 39.9164 65.2147 39.2014 65.2147 38.313C65.2147 37.4246 65.9292 36.7095 66.8169 36.7095ZM66.8169 33.676C64.262 33.676 62.1835 35.7562 62.1835 38.313C62.1835 40.8698 64.262 42.9499 66.8169 42.9499C69.3718 42.9499 71.4504 40.8698 71.4504 38.313C71.4504 35.7562 69.3718 33.676 66.8169 33.676Z" fill="#335433"/>
<path d="M78.7902 34.1744C79.678 34.1744 80.3925 34.8894 80.3925 35.7778C80.3925 36.6662 79.678 37.3812 78.7902 37.3812C77.9025 37.3812 77.188 36.6662 77.188 35.7778C77.188 34.8894 77.9025 34.1744 78.7902 34.1744ZM78.7902 31.1409C76.2354 31.1409 74.1568 33.221 74.1568 35.7778C74.1568 38.3346 76.2354 40.4148 78.7902 40.4148C81.3451 40.4148 83.4237 38.3346 83.4237 35.7778C83.4453 33.221 81.3668 31.1409 78.7902 31.1409Z" fill="#335433"/>
<path d="M54.8219 50.9019C55.7096 50.9019 56.4241 51.617 56.4241 52.5054C56.4241 53.3937 55.7096 54.1088 54.8219 54.1088C53.9342 54.1088 53.2197 53.3937 53.2197 52.5054C53.2197 51.617 53.9342 50.9019 54.8219 50.9019ZM54.8219 47.8684C52.267 47.8684 50.1885 49.9485 50.1885 52.5054C50.1885 55.0622 52.267 57.1423 54.8219 57.1423C57.3768 57.1423 59.4554 55.0622 59.4554 52.5054C59.477 49.9485 57.3985 47.8684 54.8219 47.8684Z" fill="#335433"/>
<path d="M66.8169 48.3669C67.7046 48.3669 68.4191 49.0819 68.4191 49.9703C68.4191 50.8587 67.7046 51.5737 66.8169 51.5737C65.9292 51.5737 65.2147 50.8587 65.2147 49.9703C65.2147 49.0819 65.9292 48.3669 66.8169 48.3669ZM66.8169 45.3334C64.262 45.3334 62.1835 47.4135 62.1835 49.9703C62.1835 52.5271 64.262 54.6073 66.8169 54.6073C69.3718 54.6073 71.4504 52.5271 71.4504 49.9703C71.4504 47.4135 69.3718 45.3334 66.8169 45.3334Z" fill="#335433"/>
<path d="M78.7902 45.8533C79.678 45.8533 80.3925 46.5684 80.3925 47.4568C80.3925 48.3451 79.678 49.0602 78.7902 49.0602C77.9025 49.0602 77.188 48.3451 77.188 47.4568C77.188 46.5684 77.9025 45.8533 78.7902 45.8533ZM78.7902 42.8198C76.2354 42.8198 74.1568 44.8999 74.1568 47.4568C74.1568 50.0136 76.2354 52.0937 78.7902 52.0937C81.3451 52.0937 83.4237 50.0136 83.4237 47.4568C83.4453 44.8999 81.3668 42.8198 78.7902 42.8198Z" fill="#335433"/>
<path d="M54.8219 63.3611C55.7096 63.3611 56.4241 64.0762 56.4241 64.9646C56.4241 65.853 55.7096 66.568 54.8219 66.568C53.9342 66.568 53.2197 65.853 53.2197 64.9646C53.2197 64.0762 53.9342 63.3611 54.8219 63.3611ZM54.8219 60.3276C52.267 60.3276 50.1885 62.4078 50.1885 64.9646C50.1885 67.5214 52.267 69.6015 54.8219 69.6015C57.3768 69.6015 59.4554 67.5214 59.4554 64.9646C59.477 62.4078 57.3985 60.3276 54.8219 60.3276Z" fill="#335433"/>
<path d="M66.8169 60.8476C67.7046 60.8476 68.4191 61.5626 68.4191 62.451C68.4191 63.3394 67.7046 64.0545 66.8169 64.0545C65.9292 64.0545 65.2147 63.3394 65.2147 62.451C65.2147 61.5626 65.9292 60.8476 66.8169 60.8476ZM66.8169 57.8141C64.262 57.8141 62.1835 59.8942 62.1835 62.451C62.1835 65.0079 64.262 67.088 66.8169 67.088C69.3718 67.088 71.4504 65.0079 71.4504 62.451C71.4504 59.8942 69.3718 57.8141 66.8169 57.8141Z" fill="#335433"/>
<path d="M78.7902 58.3124C79.678 58.3124 80.3925 59.0275 80.3925 59.9159C80.3925 60.8043 79.678 61.5193 78.7902 61.5193C77.9025 61.5193 77.188 60.8043 77.188 59.9159C77.188 59.0275 77.9025 58.3124 78.7902 58.3124ZM78.7902 55.2789C76.2354 55.2789 74.1568 57.3591 74.1568 59.9159C74.1568 62.4727 76.2354 64.5528 78.7902 64.5528C81.3451 64.5528 83.4237 62.4727 83.4237 59.9159C83.4453 57.3591 81.3668 55.2789 78.7902 55.2789Z" fill="#335433"/>
</svg>
