<svg width="100" height="93" viewBox="0 0 100 93" fill="none" xmlns="http://www.w3.org/2000/svg">
<path d="M16.6597 71.2711C15.7434 71.2711 14.9937 72.017 14.9937 72.9286V82.8734C14.9937 83.785 15.7434 84.5309 16.6597 84.5309C17.576 84.5309 18.3256 83.785 18.3256 82.8734V72.9286C18.3256 72.017 17.5968 71.2711 16.6597 71.2711Z" fill="#335433"/>
<path d="M23.3235 71.2711C22.4072 71.2711 21.6576 72.017 21.6576 72.9286V82.8734C21.6576 83.785 22.4072 84.5309 23.3235 84.5309C24.2398 84.5309 24.9895 83.785 24.9895 82.8734V72.9286C24.9895 72.017 24.2606 71.2711 23.3235 71.2711Z" fill="#335433"/>
<path d="M29.9874 54.6964C29.0711 54.6964 28.3214 55.4423 28.3214 56.3539V66.2987C28.3214 67.2103 29.0711 67.9562 29.9874 67.9562C30.9037 67.9562 31.6534 67.2103 31.6534 66.2987V56.3539C31.6534 55.4423 30.9245 54.6964 29.9874 54.6964Z" fill="#335433"/>
<path d="M29.9874 71.2711C29.0711 71.2711 28.3214 72.017 28.3214 72.9286V82.8734C28.3214 83.785 29.0711 84.5309 29.9874 84.5309C30.9037 84.5309 31.6534 83.785 31.6534 82.8734V72.9286C31.6534 72.017 30.9245 71.2711 29.9874 71.2711Z" fill="#335433"/>
<path d="M36.6513 54.6964C35.735 54.6964 34.9854 55.4423 34.9854 56.3539V66.2987C34.9854 67.2103 35.735 67.9562 36.6513 67.9562C37.5676 67.9562 38.3173 67.2103 38.3173 66.2987V56.3539C38.3173 55.4423 37.5884 54.6964 36.6513 54.6964Z" fill="#335433"/>
<path d="M36.6513 71.2711C35.735 71.2711 34.9854 72.017 34.9854 72.9286V82.8734C34.9854 83.785 35.735 84.5309 36.6513 84.5309C37.5676 84.5309 38.3173 83.785 38.3173 82.8734V72.9286C38.3173 72.017 37.5884 71.2711 36.6513 71.2711Z" fill="#335433"/>
<path d="M63.3067 54.6964C62.3905 54.6964 61.6408 55.4423 61.6408 56.3539V66.2987C61.6408 67.2103 62.3905 67.9562 63.3067 67.9562C64.223 67.9562 64.9727 67.2103 64.9727 66.2987V56.3539C64.9727 55.4423 64.2438 54.6964 63.3067 54.6964Z" fill="#335433"/>
<path d="M63.3067 71.2711C62.3905 71.2711 61.6408 72.017 61.6408 72.9286V82.8734C61.6408 83.785 62.3905 84.5309 63.3067 84.5309C64.223 84.5309 64.9727 83.785 64.9727 82.8734V72.9286C64.9727 72.017 64.2438 71.2711 63.3067 71.2711Z" fill="#335433"/>
<path d="M69.9706 54.6964C69.0543 54.6964 68.3047 55.4423 68.3047 56.3539V66.2987C68.3047 67.2103 69.0543 67.9562 69.9706 67.9562C70.8869 67.9562 71.6366 67.2103 71.6366 66.2987V56.3539C71.6366 55.4423 70.9077 54.6964 69.9706 54.6964Z" fill="#335433"/>
<path d="M69.9706 71.2711C69.0543 71.2711 68.3047 72.017 68.3047 72.9286V82.8734C68.3047 83.785 69.0543 84.5309 69.9706 84.5309C70.8869 84.5309 71.6366 83.785 71.6366 82.8734V72.9286C71.6366 72.017 70.9077 71.2711 69.9706 71.2711Z" fill="#335433"/>
<path d="M76.6345 71.2711C75.7182 71.2711 74.9685 72.017 74.9685 72.9286V82.8734C74.9685 83.785 75.7182 84.5309 76.6345 84.5309C77.5508 84.5309 78.3005 83.785 78.3005 82.8734V72.9286C78.3005 72.017 77.5716 71.2711 76.6345 71.2711Z" fill="#335433"/>
<path d="M83.2984 71.2711C82.3821 71.2711 81.6324 72.017 81.6324 72.9286V82.8734C81.6324 83.785 82.3821 84.5309 83.2984 84.5309C84.2146 84.5309 84.9643 83.785 84.9643 82.8734V72.9286C84.9643 72.017 84.2355 71.2711 83.2984 71.2711Z" fill="#335433"/>
<path d="M49.979 54.6964C49.0627 54.6964 48.313 55.4423 48.313 56.3539V66.2987C48.313 67.2103 49.0627 67.9562 49.979 67.9562C50.8953 67.9562 51.645 67.2103 51.645 66.2987V56.3539C51.645 55.4423 50.9161 54.6964 49.979 54.6964Z" fill="#335433"/>
<path d="M49.979 71.2711C49.0627 71.2711 48.313 72.017 48.313 72.9286V82.8734C48.313 83.785 49.0627 84.5309 49.979 84.5309C50.8953 84.5309 51.645 83.785 51.645 82.8734V72.9286C51.645 72.017 50.9161 71.2711 49.979 71.2711Z" fill="#335433"/>
<path d="M43.3151 54.6964C42.3989 54.6964 41.6492 55.4423 41.6492 56.3539V66.2987C41.6492 67.2103 42.3989 67.9562 43.3151 67.9562C44.2314 67.9562 44.9811 67.2103 44.9811 66.2987V56.3539C44.9811 55.4423 44.2522 54.6964 43.3151 54.6964Z" fill="#335433"/>
<path d="M43.3151 71.2711C42.3989 71.2711 41.6492 72.017 41.6492 72.9286V82.8734C41.6492 83.785 42.3989 84.5309 43.3151 84.5309C44.2314 84.5309 44.9811 83.785 44.9811 82.8734V72.9286C44.9811 72.017 44.2522 71.2711 43.3151 71.2711Z" fill="#335433"/>
<path d="M56.6429 54.6964C55.7266 54.6964 54.9769 55.4423 54.9769 56.3539V66.2987C54.9769 67.2103 55.7266 67.9562 56.6429 67.9562C57.5592 67.9562 58.3089 67.2103 58.3089 66.2987V56.3539C58.3089 55.4423 57.58 54.6964 56.6429 54.6964Z" fill="#335433"/>
<path d="M56.6429 71.2711C55.7266 71.2711 54.9769 72.017 54.9769 72.9286V82.8734C54.9769 83.785 55.7266 84.5309 56.6429 84.5309C57.5592 84.5309 58.3089 83.785 58.3089 82.8734V72.9286C58.3089 72.017 57.58 71.2711 56.6429 71.2711Z" fill="#335433"/>
<path d="M96.043 69.4065L98.5211 49.7033C99.3541 49.5997 99.958 48.8953 99.958 48.0666V38.1218C99.958 37.2101 99.2084 36.4643 98.2921 36.4643H94.0647C97.7506 32.3828 97.3966 26.1051 93.2942 22.438C91.7323 21.0498 89.7748 20.1797 87.6924 19.9518C89.5666 14.7929 86.8802 9.09535 81.6949 7.2307C78.592 6.11191 75.156 6.58843 72.4696 8.51524C69.9915 5.28318 66.014 3.33565 61.6408 3.33565C56.4138 3.33565 51.7908 6.11191 49.6042 10.4213C44.3356 8.78458 38.7337 11.7266 37.0886 16.9683C36.7971 17.9214 36.6305 18.9158 36.6305 19.9103C36.6305 20.0139 36.6305 20.1382 36.6305 20.2418C35.4643 20.4697 34.3398 20.8219 33.2569 21.2985C32.4864 19.8275 31.466 18.5015 30.2581 17.362C28.1965 15.4144 26.9262 12.7832 26.6763 9.96552H28.3006C29.2169 9.96552 29.9666 9.21966 29.9666 8.30806V4.9724C29.9666 2.23758 27.7175 0 24.9687 0H14.9937C12.2449 0 9.9958 2.23758 9.9958 4.9724V8.28734C9.9958 9.19895 10.7455 9.94481 11.6618 9.94481H13.2861C13.0362 12.7625 11.7659 15.3937 9.70426 17.3413C6.68469 20.1382 4.9979 24.0747 4.9979 28.1769C4.9979 29.3993 5.45604 30.5803 6.2682 31.4919C5.43522 32.4035 4.9979 33.5844 4.9979 34.8068V36.4643H1.66597C0.749685 36.4643 0 37.2101 0 38.1218V48.0666C0 48.8953 0.624738 49.5997 1.4369 49.7033L3.91502 69.4686L0.624738 75.5184C-0.708036 77.9217 0.187421 80.9466 2.60307 82.2518C3.51936 82.7491 4.58141 82.9563 5.62264 82.8319L6.1849 87.2242C6.58057 90.4149 9.43354 92.8182 12.8071 92.8182H87.2134C90.587 92.8182 93.4399 90.4149 93.8356 87.2242L94.3979 82.7491C95.4391 82.8734 96.4803 82.6869 97.3966 82.169C99.8123 80.8637 100.708 77.8388 99.3958 75.4148L96.043 69.4065ZM96.6261 39.7792V46.4091H83.4233L79.779 39.7792H96.6261ZM95.1684 49.724L93.315 64.4341L85.2559 49.724H95.1684ZM46.6471 13.2597C47.73 13.2597 48.7712 13.5084 49.7291 14.0056C50.5413 14.4407 51.5409 14.1092 51.9782 13.3012C52.0198 13.2183 52.0615 13.1354 52.0823 13.0526C53.3943 9.21966 57.226 6.62987 61.6408 6.62987C65.4517 6.62987 68.9919 8.66027 70.637 11.7887C71.0743 12.5968 72.0739 12.9075 72.8861 12.4724C73.0527 12.3896 73.2193 12.2653 73.3442 12.1202C75.8223 9.40613 80.0289 9.19895 82.7569 11.6437C84.173 12.9075 84.9643 14.71 84.9643 16.5747C84.9643 18.0871 84.4645 19.5374 83.5066 20.7183C82.9235 21.4228 83.0485 22.4794 83.7565 23.0388C84.1522 23.3496 84.6728 23.4739 85.1518 23.3703C88.7336 22.5623 92.3154 24.7999 93.1068 28.3841C93.9189 31.9477 91.6699 35.5112 88.0672 36.2985C87.5882 36.4021 87.0884 36.4643 86.6095 36.4643H82.507C79.7374 27.7211 70.3871 22.8731 61.62 25.6286C59.6208 26.2501 57.7674 27.2446 56.1639 28.5499C55.7891 28.8607 55.4351 29.1714 55.081 29.5029C52.3738 23.6396 46.4805 19.8896 39.9832 19.8896C40.004 16.2225 42.982 13.2597 46.6471 13.2597ZM79.0085 36.4643H54.2897C55.1435 34.3717 56.5179 32.5278 58.2672 31.119C63.161 27.2032 70.1164 27.2032 75.0102 31.119C76.7803 32.5278 78.1547 34.3717 79.0085 36.4643ZM34.5063 24.3855C39.0878 22.3344 44.4397 23.0181 48.3547 26.1466C50.3747 27.7833 51.8741 29.9587 52.6654 32.4035C51.8324 33.6673 51.1868 35.0347 50.7287 36.4643H34.9853V34.8068C34.9853 33.5844 34.5272 32.4035 33.715 31.4919C34.548 30.5803 34.9853 29.3993 34.9853 28.1769C34.9853 26.8924 34.8395 25.6079 34.5063 24.3855ZM74.4271 39.7792L71.2618 41.4988C70.4496 41.9339 70.1581 42.9491 70.5954 43.7571L72.0531 46.4091H27.9674L29.3835 43.8193C29.8208 43.0113 29.5293 42.0168 28.7171 41.561L25.4268 39.7792H74.4271ZM13.3277 4.9724C13.3277 4.0608 14.0774 3.31494 14.9937 3.31494H24.9895C25.9058 3.31494 26.6555 4.0608 26.6555 4.9724V6.62987H13.3277V4.9724ZM25.4685 16.5747H14.5356C15.7434 14.565 16.4514 12.286 16.618 9.94481H23.3652C23.5318 12.286 24.2607 14.565 25.4685 16.5747ZM11.8492 19.8896H28.1548C30.4039 22.065 31.6742 25.0485 31.6534 28.1769C31.6534 29.0886 30.9037 29.8344 29.9874 29.8344H9.9958C9.07952 29.8344 8.32984 29.0886 8.32984 28.1769C8.32984 25.0485 9.60014 22.065 11.8492 19.8896ZM8.32984 34.8068C8.32984 33.8952 9.07952 33.1494 9.9958 33.1494H29.9874C30.9037 33.1494 31.6534 33.8952 31.6534 34.8068V36.4643H8.32984V34.8068ZM3.33193 46.4091V39.7792H20.1999L16.5555 46.4091H3.33193ZM14.7646 49.724L6.66387 64.4962L4.81048 49.724H14.7646ZM6.47645 78.6883C6.1849 79.227 5.62264 79.5584 5.01873 79.5584C4.74801 79.5584 4.47729 79.4963 4.22739 79.3513C3.41523 78.9162 3.12369 77.901 3.56101 77.093L22.7613 42.079L25.6767 43.6743L6.47645 78.6883ZM90.5037 86.8306C90.3163 88.3637 88.8794 89.5033 87.1926 89.5033H12.7863C11.0995 89.5033 9.66261 88.343 9.47519 86.8306L8.76715 81.1952C9.01705 80.9259 9.22529 80.6151 9.39189 80.3043L21.6576 57.9285V66.2987C21.6576 67.2103 22.4073 67.9562 23.3235 67.9562C24.2398 67.9562 24.9895 67.2103 24.9895 66.2987V56.3539C24.9895 55.463 24.3023 54.7379 23.4068 54.6964L26.1349 49.724H73.844L76.572 54.6964C75.6766 54.7171 74.9477 55.463 74.9477 56.3539V66.2987C74.9477 67.2103 75.6974 67.9562 76.6137 67.9562C77.53 67.9562 78.2796 67.2103 78.2796 66.2987V57.8249L90.5453 80.2007C90.7327 80.5322 90.941 80.8223 91.1909 81.1123L90.5037 86.8306ZM96.5636 78.2946C96.3137 79.1648 95.3766 79.6828 94.502 79.4134C94.0855 79.2891 93.7107 78.999 93.5024 78.6261L74.3021 43.6121L77.2176 42.0168L96.4179 77.0308C96.6469 77.4245 96.6886 77.8803 96.5636 78.2946Z" fill="#335433"/>
</svg>
