<svg width="259" height="94" viewBox="0 0 259 94" fill="none" xmlns="http://www.w3.org/2000/svg">
<path d="M221.752 57.0413H209.601V53.1598C207.408 56.7038 203.189 58.2226 199.138 58.2226C189.013 58.2226 181.756 49.6158 181.756 39.4901C181.756 29.5332 188.844 20.9264 198.97 20.9264C202.851 20.9264 207.07 22.4452 209.601 25.4829V22.1077H221.752V57.0413ZM195.088 39.4901C195.088 43.5404 197.619 46.5781 202.176 46.5781C206.564 46.5781 209.264 43.5404 209.264 39.4901C209.264 35.6086 206.733 32.4022 202.176 32.4022C197.619 32.4022 195.088 35.6086 195.088 39.4901Z" fill="black"/>
<path d="M258.88 11.307H52.991V26.3267C56.0287 22.4452 59.4039 20.7576 64.298 20.7576C73.2424 20.7576 77.4614 26.6643 77.4614 35.4399V56.8725H64.9731V38.9838C64.9731 34.9336 64.298 30.7145 59.4039 30.7145C54.5099 30.7145 52.991 34.9336 52.991 38.9838V56.8725H40.5027V11.307H33.4147V56.8725H20.0826V11.307H0V0H258.88V11.307Z" fill="black"/>
<path d="M245.716 32.7397C245.716 31.5583 245.548 30.5458 244.873 29.8707C244.197 29.0269 243.016 28.6894 241.16 28.6894C239.135 28.6894 237.953 29.8707 237.953 31.8959C237.953 34.4273 243.354 34.4273 251.623 36.9587C255.842 38.3088 258.711 40.8402 258.711 46.5781C258.711 55.86 249.935 58.2226 242.004 58.2226C233.397 58.2226 224.959 56.535 225.127 45.7343H237.785C237.616 46.7469 237.953 47.9282 238.628 48.9408C239.472 49.7846 240.485 50.6284 241.835 50.6284C244.366 50.6284 246.391 49.6158 246.391 47.4219C246.391 41.1777 225.634 44.8905 225.634 32.2334C225.634 23.6266 234.916 21.2639 241.835 21.2639C250.104 21.2639 257.867 23.4578 258.373 33.0772H245.716V32.7397Z" fill="black"/>
<path d="M156.273 57.0412H144.46V40.3339C144.46 36.4524 144.46 31.2208 139.397 31.2208C134.334 31.2208 134.334 36.4524 134.334 40.3339V57.0412H121.846V21.9389H134.334V26.3267C137.372 22.4452 139.903 20.7576 144.46 20.7576C149.522 20.7576 153.404 22.7827 155.935 27.508C158.298 23.1202 162.011 20.7576 166.736 20.7576C175.68 20.7576 178.718 26.4954 178.718 34.596V56.8725H166.23V40.1651C166.23 36.2836 166.23 31.052 161.167 31.052C156.104 31.052 156.104 36.2836 156.104 40.1651V57.0412H156.273Z" fill="black"/>
<path d="M119.483 39.4901C119.483 51.3033 110.201 58.0538 99.5691 58.0538C89.1059 58.0538 79.6553 51.3033 79.6553 39.4901C79.6553 27.508 88.9372 20.7576 99.5691 20.7576C110.201 20.7576 119.483 27.508 119.483 39.4901ZM93.1562 39.4901C93.1562 43.3716 95.5189 46.2405 99.7379 46.2405C103.788 46.2405 106.32 43.2028 106.32 39.4901C106.32 35.7773 103.957 32.5709 99.7379 32.5709C95.5189 32.5709 93.1562 35.7773 93.1562 39.4901Z" fill="black"/>
<path d="M258.88 67.6732H0V68.6858H258.88V67.6732Z" fill="black"/>
<path d="M125.727 90.1185C125.39 90.1185 124.715 90.1185 124.208 89.9498C124.04 89.9498 123.871 89.781 123.533 89.781V78.474H124.715V83.1993C125.052 83.0306 125.221 83.0305 125.558 82.8618C125.896 82.693 126.402 82.693 126.908 82.693C128.765 82.693 129.946 84.0431 129.946 86.237C129.946 88.4309 128.259 90.1185 125.727 90.1185ZM126.402 83.5368C125.727 83.5368 125.221 83.7056 124.546 84.0431V88.5997C124.883 88.7684 125.221 88.7684 125.558 88.7684C125.727 88.7684 125.896 88.7684 126.233 88.7684C126.571 88.7684 127.077 88.4309 127.415 88.2621C128.259 87.7559 128.427 87.0808 128.427 85.8995C128.596 84.5494 127.752 83.5368 126.402 83.5368Z" fill="black"/>
<path d="M134.84 90.2872C134.503 91.1311 134.165 91.8061 133.828 92.4811C133.49 92.9874 133.321 93.325 132.815 94L131.803 93.3249C132.478 92.4811 132.815 92.1436 133.153 91.4686C133.49 90.7935 133.659 90.2873 134.165 89.2747L131.465 82.693H132.815L134.503 87.0808L134.671 87.7558L134.84 87.0808L136.359 82.693H137.54L134.84 90.2872Z" fill="black"/>
<path d="M148.004 84.043C147.835 83.8743 147.666 83.7055 147.497 83.7055C146.991 83.7055 146.485 84.3805 145.81 85.5619V89.7809H144.628V82.6929H145.81V84.043C146.654 82.8617 147.16 82.5242 147.666 82.5242C148.004 82.5242 148.341 82.6929 148.51 83.0305L148.004 84.043Z" fill="black"/>
<path d="M153.741 90.1185C151.716 90.1185 150.197 88.4309 150.197 86.4057C150.197 84.3806 151.885 82.693 153.741 82.693C155.598 82.693 157.285 84.3806 157.285 86.4057C157.285 88.2621 155.598 90.1185 153.741 90.1185ZM153.741 83.5368C152.391 83.5368 151.548 84.7181 151.548 86.237C151.548 87.7558 152.56 88.9372 153.741 88.9372C154.923 88.9372 155.935 87.7558 155.935 86.237C155.935 84.7181 154.923 83.5368 153.741 83.5368Z" fill="black"/>
<path d="M162.348 90.1185C162.011 90.1185 161.673 90.1185 161.336 89.9498C160.661 89.781 160.323 89.781 159.648 89.2747L160.154 88.2622C160.323 88.4309 160.492 88.4309 160.661 88.5997C161.167 88.7685 161.842 88.9372 162.348 88.9372C163.023 88.9372 163.698 88.5997 163.698 87.9246C163.698 87.7559 163.698 87.5871 163.53 87.4184C163.192 87.0808 162.855 86.7433 161.673 86.237C160.323 85.7307 159.817 85.2245 159.817 84.2119C159.817 83.0306 160.829 82.1868 162.517 82.1868C162.855 82.1868 163.192 82.1868 163.361 82.1868C163.867 82.3555 164.205 82.3555 164.711 82.693L164.205 83.7056C163.698 83.3681 163.53 83.3681 163.192 83.1993C162.855 83.1993 162.686 83.0306 162.348 83.0306C161.504 83.0306 160.998 83.3681 160.998 83.8744C160.998 84.0431 160.998 84.2119 161.167 84.3807C161.504 84.7182 161.673 84.7182 163.023 85.3932C164.542 86.0683 165.048 86.5746 165.048 87.5871C164.88 89.2747 163.867 90.1185 162.348 90.1185Z" fill="black"/>
<path d="M168.592 86.0682C168.592 87.7558 169.436 88.9372 170.955 88.9372C171.63 88.9372 171.968 88.7684 172.812 88.2621L173.318 89.2747C172.305 89.9497 171.63 90.1185 170.786 90.1185C168.761 90.1185 167.411 88.5996 167.411 86.4057C167.411 84.0431 168.761 82.693 170.786 82.693C172.474 82.693 173.487 83.8743 173.487 85.7307V86.0682H168.592ZM170.618 83.5368C169.605 83.5368 168.93 84.2118 168.592 85.2244H172.136C172.136 84.2118 171.63 83.5368 170.618 83.5368Z" fill="black"/>
<path d="M181.081 89.7809V84.7181C181.081 84.2118 181.081 84.043 180.912 83.8743C180.743 83.7055 180.575 83.5367 180.237 83.5367C179.562 83.5367 178.718 84.043 177.537 85.3931V89.7809H176.355V82.6929H177.537V84.2118C178.043 83.7055 178.212 83.5367 178.549 83.1992C179.056 82.6929 179.731 82.5242 180.406 82.5242C181.756 82.5242 182.262 83.1992 182.262 84.5493V89.9497H181.081V89.7809Z" fill="black"/>
<path d="M187.156 90.1185C186.312 90.1185 185.806 89.4434 185.806 88.5996V83.8743H184.625V83.1993L185.637 82.693V80.6678H186.819V82.693H188.675V83.7055H186.819V87.7558V88.0933C186.819 88.2621 186.819 88.4309 186.819 88.5996C186.819 88.7684 186.987 88.9371 187.156 88.9371C187.494 88.9371 187.663 88.7684 188.169 88.4309L188.675 89.2747C188 89.781 187.663 90.1185 187.156 90.1185Z" fill="black"/>
<path d="M195.932 89.781V84.7182C195.932 84.2119 195.932 84.0431 195.763 83.8744C195.594 83.7056 195.425 83.5368 195.088 83.5368C194.413 83.5368 193.569 84.0431 192.388 85.3932V89.781H191.206V78.1365H192.388V84.0431C192.894 83.5368 193.063 83.3681 193.4 83.0306C193.907 82.5243 194.582 82.3555 195.257 82.3555C196.607 82.3555 197.113 83.0306 197.113 84.3806V89.781H195.932Z" fill="black"/>
<path d="M205.72 90.1185C204.707 90.1185 204.37 89.781 204.37 89.1059C204.032 89.4434 203.864 89.6122 203.526 89.6122C203.02 89.9497 202.513 89.9497 202.007 89.9497C200.826 89.9497 200.151 89.2747 200.151 88.0934C200.151 87.0808 200.657 86.4057 201.67 86.0682L204.201 85.5619V84.2118C204.201 83.7056 203.695 83.368 202.851 83.368C202.176 83.368 201.838 83.5368 201.838 84.0431C201.838 84.0431 201.838 84.2118 201.838 84.3806L200.657 84.7181C200.488 84.5494 200.488 84.3806 200.488 84.2118C200.488 83.1993 201.501 82.693 203.02 82.693C204.539 82.693 205.382 83.368 205.382 84.5494V88.9372C205.382 89.1059 205.551 89.2747 205.889 89.2747L205.72 90.1185ZM204.201 86.5745L201.501 87.2495C201.332 87.5871 201.332 87.7558 201.332 88.0934C201.332 88.5996 201.67 89.1059 202.345 89.1059C202.851 89.1059 203.188 88.9372 204.201 88.2621V86.5745Z" fill="black"/>
<path d="M210.108 78.3052H208.926V89.9497H210.108V78.3052Z" fill="black"/>
<path d="M223.271 83.7056C223.609 84.2118 223.777 84.5494 223.777 85.2244C223.777 86.7433 222.427 87.9246 220.908 87.9246C220.74 87.9246 220.74 87.9246 220.402 87.9246H220.233C219.558 88.4309 219.221 88.7684 219.221 88.9372C219.221 89.1059 219.39 89.2747 219.896 89.2747H222.596C223.946 89.2747 224.452 89.781 224.452 90.9623C224.452 92.6499 222.765 94 220.571 94C219.052 94 217.702 93.1562 217.702 92.3124C217.702 92.1436 217.702 91.8061 217.871 91.6373C218.039 91.2998 218.208 90.9623 218.883 90.456C218.208 90.2872 217.871 89.9497 217.871 89.6122C217.871 89.1059 218.377 88.5996 219.221 87.7558C218.377 87.2495 217.871 86.4057 217.871 85.3932C217.871 83.7056 219.052 82.693 220.74 82.693C221.246 82.693 221.583 82.693 222.259 83.0305H223.271L224.621 82.8618V83.8743H223.271V83.7056ZM222.427 90.2872H219.727L219.558 90.6248C219.052 91.2998 218.883 91.6373 218.883 91.9749C218.883 92.4811 219.558 92.8187 220.571 92.8187C222.09 92.8187 223.271 91.9749 223.271 90.9623C223.44 90.456 223.102 90.2872 222.427 90.2872ZM220.74 83.368C219.896 83.368 219.221 84.2118 219.221 85.2244C219.221 86.237 219.896 87.0808 220.74 87.0808C221.583 87.0808 222.259 86.237 222.259 85.2244C222.259 84.2118 221.583 83.368 220.74 83.368Z" fill="black"/>
<path d="M230.528 84.043C230.359 83.8743 230.19 83.7055 230.022 83.7055C229.515 83.7055 229.009 84.3805 228.334 85.5619V89.7809H227.153V82.6929H228.334V84.043C229.178 82.8617 229.684 82.5242 230.19 82.5242C230.528 82.5242 230.865 82.6929 231.034 83.0305L230.528 84.043Z" fill="black"/>
<path d="M236.097 90.1185C234.072 90.1185 232.553 88.4309 232.553 86.4057C232.553 84.3806 234.241 82.693 236.097 82.693C237.953 82.693 239.641 84.3806 239.641 86.4057C239.641 88.2621 238.122 90.1185 236.097 90.1185ZM236.097 83.5368C234.747 83.5368 233.903 84.7181 233.903 86.237C233.903 87.7558 234.916 88.9372 236.097 88.9372C237.278 88.9372 238.291 87.7558 238.291 86.237C238.46 84.7181 237.447 83.5368 236.097 83.5368Z" fill="black"/>
<path d="M247.235 89.781V88.2621C246.391 89.4434 245.379 89.9497 244.366 89.9497C243.185 89.9497 242.51 89.2747 242.51 87.9246V82.693H243.691V87.7558C243.691 88.5996 243.86 88.9372 244.535 88.9372C245.379 88.9372 246.391 88.0934 247.235 86.912V82.693H248.417V89.9497H247.235V89.781Z" fill="black"/>
<path d="M254.829 90.1185C253.986 90.1185 253.648 89.9497 253.142 89.6122V93.6625H251.96V82.693H253.142V83.5368C253.817 82.8618 254.661 82.3555 255.504 82.3555C257.361 82.3555 258.542 83.8743 258.542 85.8995C258.542 88.4309 257.023 90.1185 254.829 90.1185ZM255.336 83.5368C254.829 83.5368 254.323 83.7056 253.986 84.0431C253.648 84.2118 253.479 84.3806 253.142 84.8869V87.4183C253.142 88.0933 253.142 88.0934 253.311 88.4309C253.479 88.7684 253.986 89.1059 254.829 89.1059C256.348 89.1059 257.361 87.9246 257.361 86.237C257.192 84.5494 256.348 83.5368 255.336 83.5368Z" fill="black"/>
</svg>
